[gd_scene load_steps=3 format=2]

[ext_resource path="res://scenes/Troup.gd" type="Script" id=1]
[ext_resource path="res://assets/imgs/tank.png" type="Texture" id=2]

[node name="Troup" type="Area2D" groups=[
"Troup",
]]
z_index = 3
script = ExtResource( 1 )

[node name="CollisionPolygon2D" type="CollisionPolygon2D" parent="."]
polygon = PoolVector2Array( -6.12598, -52.5592, 57.3411, 44.3116, -51.2211, 54.3327 )

[node name="Sprite" type="Sprite" parent="."]
modulate = Color( 1.2, 1.2, 1.2, 1 )
texture = ExtResource( 2 )
[connection signal="input_event" from="." to="." method="_on_Troup_input_event"]
[connection signal="mouse_entered" from="." to="." method="_on_Troup_mouse_entered"]
[connection signal="mouse_exited" from="." to="." method="_on_Troup_mouse_exited"]
